dump.vcd
$date
	Tue Mar 19 19:34:54 2024
$end
$version
	QuestaSim Version 2023.3
$end
$timescale
	1ns
$end

$scope module top $end
$var parameter 20 ! mem1 $end
$var parameter 20 " mem2 $end
$var parameter 20 # mem3 $end
$var parameter 16 $ io1 $end
$var parameter 16 % io2 $end
$var parameter 16 & io3 $end
$var parameter 16 ' io4 $end
$var reg 1 ( CLK $end
$var reg 1 ) RESET $end
$var reg 1 * cs1 $end
$var reg 1 + cs2 $end
$var reg 1 , cs3 $end
$var reg 1 - cs4 $end

$scope module P $end
$upscope $end

$scope module m1 $end
$var parameter 32 . active $end
$var parameter 32 / AddressWidth $end
$var wire 1 0 sel $end
$var reg 1 1 OE $end
$var reg 1 2 WRITE $end
$var reg 1 3 load_address $end
$var reg 5 4 ps [4:0] $end
$var reg 5 5 ns [4:0] $end
$upscope $end

$scope module m2 $end
$var parameter 32 6 active $end
$var parameter 32 7 AddressWidth $end
$var wire 1 8 sel $end
$var reg 1 9 OE $end
$var reg 1 : WRITE $end
$var reg 1 ; load_address $end
$var reg 5 < ps [4:0] $end
$var reg 5 = ns [4:0] $end
$upscope $end

$scope module i1 $end
$var parameter 32 > active $end
$var parameter 32 ? AddressWidth $end
$var wire 1 @ sel $end
$var reg 1 A OE $end
$var reg 1 B WRITE $end
$var reg 1 C load_address $end
$var reg 5 D ps [4:0] $end
$var reg 5 E ns [4:0] $end
$upscope $end

$scope module i2 $end
$var parameter 32 F active $end
$var parameter 32 G AddressWidth $end
$var wire 1 H sel $end
$var reg 1 I OE $end
$var reg 1 J WRITE $end
$var reg 1 K load_address $end
$var reg 5 L ps [4:0] $end
$var reg 5 M ns [4:0] $end
$upscope $end
$upscope $end

$scope begin std $end
$upscope $end
$enddefinitions $end
#0
$dumpvars
0(
0)
x*
x+
x,
x-
01
02
03
bx 4
bx 5
09
0:
0;
bx <
bx =
0A
0B
0C
bx D
bx E
0I
0J
0K
bx L
bx M
b1111111111111111110 !
b10000000000000000000 "
b11111111111111111111 #
b1110000000000 $
b1110111111111 %
b1111111100000000 &
b1111111100001111 '
b0 .
b10100 /
b0 6
b10100 7
b1 >
b10000 ?
b1 F
b10000 G
xH
x@
x8
x0
$end
#50
1(
#100
0(
#150
1(
1)
#200
0(
#250
1(
b1 4
b1 <
b1 D
b1 L
b1 M
b1 E
b1 =
b1 5
#300
0(
#350
1(
#400
0(
#450
1(
#500
0(
#550
1(
#600
0(
#650
1(
0)
#700
0(
#750
1(
#800
0(
#850
1(
#900
0(
#950
1(
#1000
0(
#1050
1(
#1100
0(
#1150
1(
#1200
0(
#1250
1(
#1300
0(
#1350
1(
#1400
0(
#1450
1(
#1500
0(
#1550
1(
#1600
0(
#1650
1(
#1700
0(
#1750
1(
#1800
0(
#1850
1(
#1900
0(
#1950
1(
#2000
0(
#2050
1(
#2100
0(
#2150
1(
#2200
0(
#2250
1(
#2300
0(
#2350
1(
#2400
0(
#2450
1(
#2500
0(
#2550
1(
#2600
0(
#2650
1(
#2700
0(
#2750
1(
#2800
0(
#2850
1(
#2900
0(
#2950
1(
#3000
0(
#3050
1(
#3100
0(
#3150
1(
#3200
0(
#3250
1(
#3300
0(
#3350
1(
#3400
0(
#3450
1(
#3500
0(
#3550
1(
#3600
0(
#3650
1(
#3700
0(
#3750
1(
#3800
0(
#3850
1(
#3900
0(
#3950
1(
#4000
0(
#4050
1(
#4100
0(
#4150
1(
#4200
0(
#4250
1(
#4300
0(
#4350
1(
#4400
0(
#4450
1(
#4500
0(
#4550
1(
#4600
0(
#4650
1(
#4700
0(
#4750
1(
#4800
0(
#4850
1(
#4900
0(
#4950
1(
#5000
0(
#5050
1(
#5100
0(
#5150
1(
#5200
0(
#5250
1(
#5300
0(
#5350
1(
#5400
0(
#5450
1(
#5500
0(
#5550
1(
#5600
0(
#5650
1(
#5700
0(
#5750
1(
#5800
0(
#5850
1(
#5900
0(
#5950
1(
#6000
0(
#6050
1(
#6100
0(
#6150
1(
#6200
0(
#6250
1(
#6300
0(
#6350
1(
#6400
0(
#6450
1(
#6500
0(
#6550
1(
#6600
0(
#6650
1(
#6700
0(
#6750
1(
#6800
0(
#6850
1(
#6900
0(
#6950
1(
#7000
0(
#7050
1(
#7100
0(
#7150
1(
#7200
0(
#7250
1(
#7300
0(
#7350
1(
#7400
0(
#7450
1(
#7500
0(
#7550
1(
#7600
0(
#7650
1(
#7700
0(
#7750
1(
#7800
0(
#7850
1(
#7900
0(
#7950
1(
#8000
0(
#8050
1(
#8100
0(
#8150
1(
#8200
0(
#8250
1(
#8300
0(
#8350
1(
#8400
0(
#8450
1(
#8500
0(
#8550
1(
#8600
0(
#8650
1(
#8700
0(
#8750
1(
#8800
0(
#8850
1(
#8900
0(
#8950
1(
#9000
0(
#9050
1(
#9100
0(
#9150
1(
#9200
0(
#9250
1(
#9300
0(
#9350
1(
#9400
0(
#9450
1(
#9500
0(
#9550
1(
#9600
0(
#9650
1(
#9700
0(
#9750
1(
#9800
0(
#9850
1(
#9900
0(
#9950
1(
#10000
0(
#10050
1(
#10100
0(
#10150
1(
#10200
0(
#10250
1(
#10300
0(
#10350
1(
#10400
0(
#10450
1(
#10500
0(
#10550
1(
#10600
0(
#10650
1(
#10700
0(
#10750
1(
#10800
0(
#10850
1(
#10900
0(
#10950
1(
#11000
0(
#11050
1(
#11100
0(
#11150
1(
#11200
0(
#11250
1(
#11300
0(
#11350
1(
#11400
0(
#11450
1(
#11500
0(
#11550
1(
#11600
0(
#11650
1(
#11700
0(
#11750
1(
#11800
0(
#11850
1(
#11900
0(
#11950
1(
#12000
0(
#12050
1(
#12100
0(
#12150
1(
#12200
0(
#12250
1(
#12300
0(
#12350
1(
#12400
0(
#12450
1(
#12500
0(
#12550
1(
#12600
0(
#12650
1(
#12700
0(
#12750
1(
#12800
0(
#12850
1(
#12900
0(
#12950
1(
#13000
0(
#13050
1(
#13100
0(
#13150
1(
#13200
0(
#13250
1(
#13300
0(
#13350
1(
#13400
0(
#13450
1(
#13500
0(
#13550
1(
#13600
0(
#13650
1(
#13700
0(
#13750
1(
#13800
0(
#13850
1(
#13900
0(
#13950
1(
#14000
0(
#14050
1(
#14100
0(
#14150
1(
#14200
0(
#14250
1(
#14300
0(
#14350
1(
#14400
0(
#14450
1(
#14500
0(
#14550
1(
#14600
0(
#14650
1(
#14700
0(
#14750
1(
#14800
0(
#14850
1(
#14900
0(
#14950
1(
#15000
0(
#15050
1(
#15100
0(
#15150
1(
#15200
0(
#15250
1(
#15300
0(
#15350
1(
#15400
0(
#15450
1(
#15500
0(
1*
0+
10
08
b10 5
#15550
1(
b1 5
b10 4
b10 5
13
#15600
0(
b100 5
#15650
1(
b100 4
b10000 5
03
11
#15700
0(
#15750
1(
b10000 4
b1 5
01
#15800
0(
#15850
1(
b10000 5
b1 5
b1 4
#15900
0(
#15950
1(
#16000
0(
#16050
1(
#16100
0(
#16150
1(
#16200
0(
#16250
1(
#16300
0(
b10 5
#16350
1(
b1 5
b10 4
b10 5
13
#16400
0(
b1000 5
#16450
1(
b1000 4
b10000 5
03
12
#16500
0(
#16550
1(
b10000 4
b1 5
02
#16600
0(
#16650
1(
b10000 5
b1 5
b1 4
#16700
0(
#16750
1(
#16800
0(
#16850
1(
#16900
0(
#16950
1(
#17000
0(
b10 5
#17050
1(
b1 5
b10 4
b10 5
13
#17100
0(
b100 5
#17150
1(
b100 4
b10000 5
03
11
#17200
0(
#17250
1(
b10000 4
b1 5
01
#17300
0(
#17350
1(
b10000 5
b1 5
b1 4
#17400
0(
#17450
1(
#17500
0(
#17550
1(
#17600
0(
#17650
1(
#17700
0(
#17750
1(
#17800
0(
#17850
1(
#17900
0(
#17950
1(
#18000
0(
#18050
1(
#18100
0(
#18150
1(
#18200
0(
b10 5
#18250
1(
b1 5
b10 4
b10 5
13
#18300
0(
b100 5
#18350
1(
b100 4
b10000 5
03
11
#18400
0(
#18450
1(
b10000 4
b1 5
01
#18500
0(
#18550
1(
b10000 5
b1 5
b1 4
#18600
0(
#18650
1(
#18700
0(
#18750
1(
#18800
0(
#18850
1(
#18900
0(
#18950
1(
#19000
0(
b10 5
#19050
1(
b1 5
b10 4
b10 5
13
#19100
0(
b1000 5
#19150
1(
b1000 4
b10000 5
03
12
#19200
0(
#19250
1(
b10000 4
b1 5
02
#19300
0(
#19350
1(
b10000 5
b1 5
b1 4
#19400
0(
#19450
1(
#19500
0(
#19550
1(
#19600
0(
#19650
1(
#19700
0(
b10 5
#19750
1(
b1 5
b10 4
b10 5
13
#19800
0(
b100 5
#19850
1(
b100 4
b10000 5
03
11
#19900
0(
#19950
1(
b10000 4
b1 5
01
#20000
0(
#20050
1(
b10000 5
b1 5
b1 4
